^C:\USERS\RARES\DESKTOP\KKK\QUIASK\TESTPROJECT\STDAFX.CPP
C:\USERS\RARES\DESKTOP\KKK\QUIASK\TESTPROJECT\DEBUG\TESTPROJECT.PCH
C:\USERS\RARES\DESKTOP\KKK\QUIASK\TESTPROJECT\DEBUG\VC141.PDB
C:\USERS\RARES\DESKTOP\KKK\QUIASK\TESTPROJECT\DEBUG\VC141.IDB
C:\USERS\RARES\DESKTOP\KKK\QUIASK\TESTPROJECT\DEBUG\STDAFX.OBJ
^C:\USERS\RARES\DESKTOP\KKK\QUIASK\TESTPROJECT\UNITTEST1.CPP
C:\USERS\RARES\DESKTOP\KKK\QUIASK\TESTPROJECT\DEBUG\VC141.PDB
C:\USERS\RARES\DESKTOP\KKK\QUIASK\TESTPROJECT\DEBUG\VC141.IDB
C:\USERS\RARES\DESKTOP\KKK\QUIASK\TESTPROJECT\DEBUG\UNITTEST1.OBJ
^C:\USERS\RARES\DESKTOP\KKK\QUIASK\TESTPROJECT\BOARDCHECKERTESTS.CPP|C:\USERS\RARES\DESKTOP\KKK\QUIASK\TESTPROJECT\PIECETESTS.CPP|C:\USERS\RARES\DESKTOP\KKK\QUIASK\TESTPROJECT\UNITTEST1.CPP
C:\USERS\RARES\DESKTOP\KKK\QUIASK\TESTPROJECT\DEBUG\VC141.PDB
C:\USERS\RARES\DESKTOP\KKK\QUIASK\TESTPROJECT\DEBUG\VC141.IDB
C:\USERS\RARES\DESKTOP\KKK\QUIASK\TESTPROJECT\DEBUG\PIECETESTS.OBJ
C:\USERS\RARES\DESKTOP\KKK\QUIASK\TESTPROJECT\DEBUG\UNITTEST1.OBJ
C:\USERS\RARES\DESKTOP\KKK\QUIASK\TESTPROJECT\DEBUG\BOARDCHECKERTESTS.OBJ
^C:\USERS\RARES\DESKTOP\KKK\QUIASK\TESTPROJECT\BOARDCHECKERTESTS.CPP
C:\USERS\RARES\DESKTOP\KKK\QUIASK\TESTPROJECT\DEBUG\VC141.PDB
C:\USERS\RARES\DESKTOP\KKK\QUIASK\TESTPROJECT\DEBUG\VC141.IDB
^C:\USERS\RARES\DESKTOP\KKK\QUIASK\TESTPROJECT\PIECETESTS.CPP
C:\USERS\RARES\DESKTOP\KKK\QUIASK\TESTPROJECT\DEBUG\VC141.PDB
C:\USERS\RARES\DESKTOP\KKK\QUIASK\TESTPROJECT\DEBUG\VC141.IDB
C:\USERS\RARES\DESKTOP\KKK\QUIASK\TESTPROJECT\DEBUG\PIECETESTS.OBJ
^C:\USERS\RARES\DESKTOP\KKK\QUIASK\TESTPROJECT\BOARDCHECKERTESTS.CPP|C:\USERS\RARES\DESKTOP\KKK\QUIASK\TESTPROJECT\PIECETESTS.CPP
C:\USERS\RARES\DESKTOP\KKK\QUIASK\TESTPROJECT\DEBUG\VC141.PDB
C:\USERS\RARES\DESKTOP\KKK\QUIASK\TESTPROJECT\DEBUG\VC141.IDB
C:\USERS\RARES\DESKTOP\KKK\QUIASK\TESTPROJECT\DEBUG\BOARDCHECKERTESTS.OBJ
C:\USERS\RARES\DESKTOP\KKK\QUIASK\TESTPROJECT\DEBUG\PIECETESTS.OBJ
^C:\USERS\RARES\DESKTOP\KKK\QUIASK\TESTPROJECT\PIECETESTS.CPP|C:\USERS\RARES\DESKTOP\KKK\QUIASK\TESTPROJECT\PLAYERTESTS.CPP
C:\USERS\RARES\DESKTOP\KKK\QUIASK\TESTPROJECT\DEBUG\VC141.PDB
C:\USERS\RARES\DESKTOP\KKK\QUIASK\TESTPROJECT\DEBUG\VC141.IDB
C:\USERS\RARES\DESKTOP\KKK\QUIASK\TESTPROJECT\DEBUG\PIECETESTS.OBJ
C:\USERS\RARES\DESKTOP\KKK\QUIASK\TESTPROJECT\DEBUG\PLAYERTESTS.OBJ
^C:\USERS\RARES\DESKTOP\KKK\QUIASK\TESTPROJECT\PLAYERTESTS.CPP
C:\USERS\RARES\DESKTOP\KKK\QUIASK\TESTPROJECT\DEBUG\VC141.PDB
C:\USERS\RARES\DESKTOP\KKK\QUIASK\TESTPROJECT\DEBUG\VC141.IDB
C:\USERS\RARES\DESKTOP\KKK\QUIASK\TESTPROJECT\DEBUG\PLAYERTESTS.OBJ
^C:\USERS\RARES\DESKTOP\KKK\QUIASK\TESTPROJECT\EDGEPIECESTEST.CPP|C:\USERS\RARES\DESKTOP\KKK\QUIASK\TESTPROJECT\PLAYERTESTS.CPP
C:\USERS\RARES\DESKTOP\KKK\QUIASK\TESTPROJECT\DEBUG\VC141.PDB
C:\USERS\RARES\DESKTOP\KKK\QUIASK\TESTPROJECT\DEBUG\VC141.IDB
C:\USERS\RARES\DESKTOP\KKK\QUIASK\TESTPROJECT\DEBUG\EDGEPIECESTEST.OBJ
C:\USERS\RARES\DESKTOP\KKK\QUIASK\TESTPROJECT\DEBUG\PLAYERTESTS.OBJ
^C:\USERS\RARES\DESKTOP\KKK\QUIASK\TESTPROJECT\EDGEPIECESTEST.CPP
C:\USERS\RARES\DESKTOP\KKK\QUIASK\TESTPROJECT\DEBUG\VC141.PDB
^C:\USERS\RARES\DESKTOP\KKK\QUIASK\TESTPROJECT\EDGEPIECESTEST.CPP|C:\USERS\RARES\DESKTOP\KKK\QUIASK\TESTPROJECT\UNITTEST1.CPP
C:\USERS\RARES\DESKTOP\KKK\QUIASK\TESTPROJECT\DEBUG\VC141.PDB
C:\USERS\RARES\DESKTOP\KKK\QUIASK\TESTPROJECT\DEBUG\VC141.IDB
C:\USERS\RARES\DESKTOP\KKK\QUIASK\TESTPROJECT\DEBUG\EDGEPIECESTEST.OBJ
C:\USERS\RARES\DESKTOP\KKK\QUIASK\TESTPROJECT\DEBUG\UNITTEST1.OBJ
^C:\USERS\RARES\DESKTOP\KKK\QUIASK\TESTPROJECT\BOARDCHECKERTESTS.CPP|C:\USERS\RARES\DESKTOP\KKK\QUIASK\TESTPROJECT\EDGEPIECESTEST.CPP|C:\USERS\RARES\DESKTOP\KKK\QUIASK\TESTPROJECT\PIECETESTS.CPP|C:\USERS\RARES\DESKTOP\KKK\QUIASK\TESTPROJECT\PLAYERTESTS.CPP|C:\USERS\RARES\DESKTOP\KKK\QUIASK\TESTPROJECT\UNITTEST1.CPP
C:\USERS\RARES\DESKTOP\KKK\QUIASK\TESTPROJECT\DEBUG\VC141.PDB
C:\USERS\RARES\DESKTOP\KKK\QUIASK\TESTPROJECT\DEBUG\VC141.IDB
C:\USERS\RARES\DESKTOP\KKK\QUIASK\TESTPROJECT\DEBUG\BOARDCHECKERTESTS.OBJ
C:\USERS\RARES\DESKTOP\KKK\QUIASK\TESTPROJECT\DEBUG\EDGEPIECESTEST.OBJ
C:\USERS\RARES\DESKTOP\KKK\QUIASK\TESTPROJECT\DEBUG\PLAYERTESTS.OBJ
C:\USERS\RARES\DESKTOP\KKK\QUIASK\TESTPROJECT\DEBUG\UNITTEST1.OBJ
^C:\USERS\RARES\DESKTOP\KKK\QUIASK\TESTPROJECT\BOARDCHECKERTESTS.CPP|C:\USERS\RARES\DESKTOP\KKK\QUIASK\TESTPROJECT\EDGEPIECESTEST.CPP|C:\USERS\RARES\DESKTOP\KKK\QUIASK\TESTPROJECT\PIECETESTS.CPP|C:\USERS\RARES\DESKTOP\KKK\QUIASK\TESTPROJECT\UNITTEST1.CPP
C:\USERS\RARES\DESKTOP\KKK\QUIASK\TESTPROJECT\DEBUG\VC141.PDB
C:\USERS\RARES\DESKTOP\KKK\QUIASK\TESTPROJECT\DEBUG\VC141.IDB
C:\USERS\RARES\DESKTOP\KKK\QUIASK\TESTPROJECT\DEBUG\PIECETESTS.OBJ
C:\USERS\RARES\DESKTOP\KKK\QUIASK\TESTPROJECT\DEBUG\UNITTEST1.OBJ
^C:\USERS\RARES\DESKTOP\KKK\QUIASK\TESTPROJECT\BOARDCHECKERTESTS.CPP|C:\USERS\RARES\DESKTOP\KKK\QUIASK\TESTPROJECT\EDGEPIECESTEST.CPP
C:\USERS\RARES\DESKTOP\KKK\QUIASK\TESTPROJECT\DEBUG\VC141.PDB
C:\USERS\RARES\DESKTOP\KKK\QUIASK\TESTPROJECT\DEBUG\VC141.IDB
